﻿{
  "GlobalConfiguration": {
    "BaseUrl": "http://localhost:5000"
  },
  "ReRoutes": [
    {
      "UpstreamPathTemplate": "/identity/{everything}",
      "DownstreamPathTemplate": "/identity-service/api/user/{everything}",
      "DownstreamScheme": "http",
      "DownstreamHostAndPorts": [
        {
          "Host": "fabio",
          "Port": 9999
        }
      ],
      "AuthenticationOptions": {
        "AuthenticationProviderKey": "OwnAuthProvider",
        "AllowedScopes": []
      },
      "QoSOptions": {
        "ExceptionsAllowedBeforeBreaking": 3,
        "DurationOfBreak": 1000,
        "TimeoutValue": 5000
      }
    }
  ],
  "AnonymousRoutes": {
    "Routes": [
      "/identity/sign-in",
      "/identity/sign-up"
    ]
  },
  "AsyncRoutes": {
  },
  "Routes": [
    
  ]
}